%YAML 1.1
%TAG !u! tag:unity3d.com,2011:
--- !u!1001 &8333204442841026558
PrefabInstance:
  m_ObjectHideFlags: 0
  serializedVersion: 2
  m_Modification:
    m_TransformParent: {fileID: 0}
    m_Modifications:
    - target: {fileID: 5411805907130616566, guid: 1ece998f055cf8140ba1cfedf9dc9768,
        type: 3}
      propertyPath: m_Name
      value: Red
      objectReference: {fileID: 0}
    - target: {fileID: 5411805907130616554, guid: 1ece998f055cf8140ba1cfedf9dc9768,
        type: 3}
      propertyPath: m_LocalPosition.x
      value: 0
      objectReference: {fileID: 0}
    - target: {fileID: 5411805907130616554, guid: 1ece998f055cf8140ba1cfedf9dc9768,
        type: 3}
      propertyPath: m_LocalPosition.y
      value: 0
      objectReference: {fileID: 0}
    - target: {fileID: 5411805907130616554, guid: 1ece998f055cf8140ba1cfedf9dc9768,
        type: 3}
      propertyPath: m_LocalPosition.z
      value: 0
      objectReference: {fileID: 0}
    - target: {fileID: 5411805907130616554, guid: 1ece998f055cf8140ba1cfedf9dc9768,
        type: 3}
      propertyPath: m_LocalRotation.x
      value: 0
      objectReference: {fileID: 0}
    - target: {fileID: 5411805907130616554, guid: 1ece998f055cf8140ba1cfedf9dc9768,
        type: 3}
      propertyPath: m_LocalRotation.y
      value: 0
      objectReference: {fileID: 0}
    - target: {fileID: 5411805907130616554, guid: 1ece998f055cf8140ba1cfedf9dc9768,
        type: 3}
      propertyPath: m_LocalRotation.z
      value: 0
      objectReference: {fileID: 0}
    - target: {fileID: 5411805907130616554, guid: 1ece998f055cf8140ba1cfedf9dc9768,
        type: 3}
      propertyPath: m_LocalRotation.w
      value: 1
      objectReference: {fileID: 0}
    - target: {fileID: 5411805907130616554, guid: 1ece998f055cf8140ba1cfedf9dc9768,
        type: 3}
      propertyPath: m_RootOrder
      value: 0
      objectReference: {fileID: 0}
    - target: {fileID: 5411805907130616554, guid: 1ece998f055cf8140ba1cfedf9dc9768,
        type: 3}
      propertyPath: m_LocalEulerAnglesHint.x
      value: 0
      objectReference: {fileID: 0}
    - target: {fileID: 5411805907130616554, guid: 1ece998f055cf8140ba1cfedf9dc9768,
        type: 3}
      propertyPath: m_LocalEulerAnglesHint.y
      value: 0
      objectReference: {fileID: 0}
    - target: {fileID: 5411805907130616554, guid: 1ece998f055cf8140ba1cfedf9dc9768,
        type: 3}
      propertyPath: m_LocalEulerAnglesHint.z
      value: 0
      objectReference: {fileID: 0}
    - target: {fileID: 5411805907130616555, guid: 1ece998f055cf8140ba1cfedf9dc9768,
        type: 3}
      propertyPath: m_Sprite
      value: 
      objectReference: {fileID: 21300000, guid: a9397baba36037342b84055fdc11cad6,
        type: 3}
    - target: {fileID: 7937265752112303995, guid: 1ece998f055cf8140ba1cfedf9dc9768,
        type: 3}
      propertyPath: m_Mesh
      value: 
      objectReference: {fileID: 0}
    - target: {fileID: 2547630932025373950, guid: 1ece998f055cf8140ba1cfedf9dc9768,
        type: 3}
      propertyPath: initialSkinName
      value: slot2
      objectReference: {fileID: 0}
    m_RemovedComponents: []
  m_SourcePrefab: {fileID: 100100000, guid: 1ece998f055cf8140ba1cfedf9dc9768, type: 3}
